<svg xmlns="http://www.w3.org/2000/svg" width="272.651" height="178.412" viewBox="0 0 272.651 178.412">
  <g id="Group_73" data-name="Group 73" transform="translate(0.5 0.5)">
    <g id="Group_70" data-name="Group 70" transform="translate(0 0)">
      <path id="Rectangle_266" data-name="Rectangle 266" d="M12.687,0H265.208a6.336,6.336,0,0,1,6.336,6.336V164.153a6.336,6.336,0,0,1-6.336,6.336H6.336A6.336,6.336,0,0,1,0,164.153V12.687A12.687,12.687,0,0,1,12.687,0Z" transform="translate(0.096 6.924)" fill="#fff" stroke="#f2f2f2" stroke-width="1"/>
      <rect id="Rectangle_324" data-name="Rectangle 324" width="271.651" height="10.155" transform="translate(0 24.465)" fill="#0c322c"/>
      <g id="Group_63" data-name="Group 63" transform="translate(0 0)">
        <path id="Path_65" data-name="Path 65" d="M278.021,12.769H13.536a3.556,3.556,0,0,0-3.583,3.508v12.2H281.6v-12.2A3.556,3.556,0,0,0,278.021,12.769Z" transform="translate(-9.953 -12.769)" fill="#484848" stroke="#f2f2f2" stroke-width="1"/>
        <path id="Path_66" data-name="Path 66" d="M24.683,24.837a2.522,2.522,0,1,1-2.522-2.522A2.521,2.521,0,0,1,24.683,24.837Z" transform="translate(-14.145 -16.9)" fill="#0a1516" stroke="#f2f2f2" stroke-width="1"/>
        <path id="Path_67" data-name="Path 67" d="M24.591,25.133A2.134,2.134,0,1,1,22.458,23,2.133,2.133,0,0,1,24.591,25.133Z" transform="translate(-14.441 -17.196)" fill="#fbfbfb" stroke="#f2f2f2" stroke-width="1"/>
        <path id="Path_68" data-name="Path 68" d="M24.5,25.429a1.746,1.746,0,1,1-1.746-1.746A1.745,1.745,0,0,1,24.5,25.429Z" transform="translate(-14.737 -17.492)" fill="#ed412f" stroke="#f2f2f2" stroke-width="1"/>
        <path id="Path_69" data-name="Path 69" d="M37.362,24.837a2.522,2.522,0,1,1-2.521-2.522A2.521,2.521,0,0,1,37.362,24.837Z" transform="translate(-19.631 -16.9)" fill="#0a1516" stroke="#f2f2f2" stroke-width="1"/>
        <path id="Path_70" data-name="Path 70" d="M37.27,25.133A2.134,2.134,0,1,1,35.137,23,2.133,2.133,0,0,1,37.27,25.133Z" transform="translate(-19.927 -17.196)" fill="#fbfbfb" stroke="#f2f2f2" stroke-width="1"/>
        <path id="Path_71" data-name="Path 71" d="M37.179,25.429a1.746,1.746,0,1,1-1.746-1.746A1.746,1.746,0,0,1,37.179,25.429Z" transform="translate(-20.223 -17.492)" fill="#ffa310" stroke="#f2f2f2" stroke-width="1"/>
        <path id="Path_72" data-name="Path 72" d="M50.041,24.837a2.522,2.522,0,1,1-2.522-2.522A2.521,2.521,0,0,1,50.041,24.837Z" transform="translate(-25.118 -16.9)" fill="#0a1516" stroke="#f2f2f2" stroke-width="1"/>
        <path id="Path_73" data-name="Path 73" d="M49.949,25.133A2.134,2.134,0,1,1,47.816,23,2.133,2.133,0,0,1,49.949,25.133Z" transform="translate(-25.414 -17.196)" fill="#fbfbfb" stroke="#f2f2f2" stroke-width="1"/>
        <path id="Path_74" data-name="Path 74" d="M49.858,25.429a1.746,1.746,0,1,1-1.746-1.746A1.746,1.746,0,0,1,49.858,25.429Z" transform="translate(-25.71 -17.492)" fill="#71dd2a" stroke="#f2f2f2" stroke-width="1"/>
        <path id="Path_75" data-name="Path 75" d="M478.1,22.054v2.7l-1.037-1.037-1.244,1.244-.622-.622,1.244-1.244-1.037-1.037Z" transform="translate(-211.17 -16.787)" fill="#fbfbfb" stroke="#f2f2f2" stroke-width="1"/>
        <path id="Path_76" data-name="Path 76" d="M472.964,27.816,471.72,29.06l1.037,1.037h-2.7V27.4l1.036,1.037,1.244-1.244Z" transform="translate(-208.946 -19.011)" fill="#fbfbfb" stroke="#f2f2f2" stroke-width="1"/>
      </g>
      <line id="Line_80" data-name="Line 80" x2="271.544" transform="translate(0.096 24.378)" fill="none" stroke="#f2f2f2" stroke-width="0.342"/>
      <path id="Path_148" data-name="Path 148" d="M0,0H58.686V142.9H2.943A2.851,2.851,0,0,1,0,140.153Z" transform="translate(0.096 34.511)" fill="#f2f2f2" stroke="#f2f2f2" stroke-width="1"/>
      <path id="Rectangle_268" data-name="Rectangle 268" d="M0,0H58.686a0,0,0,0,1,0,0V10.291a0,0,0,0,1,0,0H6.31A6.31,6.31,0,0,1,0,3.982V0A0,0,0,0,1,0,0Z" transform="translate(0.096 167.121)" fill="#e6e6e6" stroke="#f2f2f2" stroke-width="1" opacity="0.46"/>
      <rect id="Rectangle_269" data-name="Rectangle 269" width="198.709" height="4.538" transform="translate(66.856 56.376)" fill="#e9e9e9" stroke="#f2f2f2" stroke-width="1"/>
      <rect id="Rectangle_270" data-name="Rectangle 270" width="198.709" height="4.538" transform="translate(66.856 65.164)" fill="#e9e9e9" stroke="#f2f2f2" stroke-width="1"/>
      <rect id="Rectangle_271" data-name="Rectangle 271" width="105.363" height="4.538" transform="translate(66.856 39.98)" fill="#e9e9e9" stroke="#f2f2f2" stroke-width="1"/>
      <rect id="Rectangle_272" data-name="Rectangle 272" width="61.275" height="39.05" transform="translate(66.856 75.292)" fill="#e9e9e9" stroke="#f2f2f2" stroke-width="1"/>
      <rect id="Rectangle_273" data-name="Rectangle 273" width="61.275" height="39.05" transform="translate(135.573 75.292)" fill="#e9e9e9" stroke="#f2f2f2" stroke-width="1"/>
      <rect id="Rectangle_274" data-name="Rectangle 274" width="61.275" height="39.05" transform="translate(204.29 75.292)" fill="#e9e9e9" stroke="#f2f2f2" stroke-width="1"/>
      <rect id="Rectangle_275" data-name="Rectangle 275" width="61.275" height="5.107" transform="translate(66.856 119.321)" fill="#e9e9e9" stroke="#f2f2f2" stroke-width="1"/>
      <rect id="Rectangle_276" data-name="Rectangle 276" width="61.275" height="5.107" transform="translate(66.856 129.149)" fill="#e9e9e9" stroke="#f2f2f2" stroke-width="1"/>
      <rect id="Rectangle_277" data-name="Rectangle 277" width="26.892" height="5.107" transform="translate(66.856 139.299)" fill="#e9e9e9" stroke="#f2f2f2" stroke-width="1"/>
      <rect id="Rectangle_278" data-name="Rectangle 278" width="61.275" height="5.107" transform="translate(135.573 119.16)" fill="#e9e9e9" stroke="#f2f2f2" stroke-width="1"/>
      <rect id="Rectangle_279" data-name="Rectangle 279" width="61.275" height="5.107" transform="translate(135.573 128.987)" fill="#e9e9e9" stroke="#f2f2f2" stroke-width="1"/>
      <rect id="Rectangle_280" data-name="Rectangle 280" width="26.892" height="5.107" transform="translate(135.573 139.138)" fill="#e9e9e9" stroke="#f2f2f2" stroke-width="1"/>
      <rect id="Rectangle_281" data-name="Rectangle 281" width="61.275" height="5.107" transform="translate(204.29 119.16)" fill="#e9e9e9" stroke="#f2f2f2" stroke-width="1"/>
      <rect id="Rectangle_282" data-name="Rectangle 282" width="61.275" height="5.107" transform="translate(204.29 128.987)" fill="#e9e9e9" stroke="#f2f2f2" stroke-width="1"/>
      <rect id="Rectangle_283" data-name="Rectangle 283" width="26.892" height="5.107" transform="translate(204.29 139.138)" fill="#e9e9e9" stroke="#f2f2f2" stroke-width="1"/>
      <line id="Line_81" data-name="Line 81" x2="212.858" transform="translate(58.782 34.511)" fill="none" stroke="#f2f2f2" stroke-width="0.342"/>
      <g id="logo" transform="translate(4.246 27.43)">
        <path id="Path_77" data-name="Path 77" d="M22.366,50.44l.559.559-.559.559L21.807,51Zm1.508,1.133-1.508,1.508-1.508-1.507L19.35,53.081,17.268,51l2.082-2.082,1.321,1.321L19.35,51.558,18.791,51l.747-.747-.187-.187L18.418,51l.933.933,3.016-3.015,3.016,3.015.187-.187-1.507-1.508,1.321-1.321L27.464,51l-.575.575-1.508-1.508-.187.187L26.7,51.761l-1.321,1.321ZM23.3,51l-.933-.933L21.433,51l.933.933Z" transform="translate(-17.268 -48.917)" fill="#fff" stroke="#f2f2f2" stroke-width="1"/>
        <rect id="Rectangle_284" data-name="Rectangle 284" width="0.813" height="1.319" transform="translate(6.03 2.082) rotate(45)" fill="#fff" stroke="#f2f2f2" stroke-width="1"/>
        <rect id="Rectangle_285" data-name="Rectangle 285" width="0.813" height="1.318" transform="matrix(0.707, 0.707, -0.707, 0.707, 3.015, 2.083)" fill="#fff" stroke="#f2f2f2" stroke-width="1"/>
      </g>
      <line id="Line_82" data-name="Line 82" x1="58.686" transform="translate(0.096 34.511)" fill="none" stroke="#f2f2f2" stroke-width="0.342"/>
      <rect id="Rectangle_286" data-name="Rectangle 286" width="3.404" height="3.404" transform="translate(4.246 40.547)" fill="#424242" stroke="#f2f2f2" stroke-width="1"/>
      <rect id="Rectangle_287" data-name="Rectangle 287" width="36.306" height="2.269" transform="translate(12.472 41.114)" fill="#424242" stroke="#f2f2f2" stroke-width="1"/>
      <rect id="Rectangle_288" data-name="Rectangle 288" width="3.404" height="3.404" transform="translate(4.246 47.807)" fill="#424242" stroke="#f2f2f2" stroke-width="1"/>
      <rect id="Rectangle_289" data-name="Rectangle 289" width="36.306" height="2.269" transform="translate(12.472 48.375)" fill="#424242" stroke="#f2f2f2" stroke-width="1"/>
      <rect id="Rectangle_290" data-name="Rectangle 290" width="3.404" height="3.404" transform="translate(4.246 55.068)" fill="#424242" stroke="#f2f2f2" stroke-width="1"/>
      <rect id="Rectangle_291" data-name="Rectangle 291" width="36.306" height="2.269" transform="translate(12.472 55.635)" fill="#424242" stroke="#f2f2f2" stroke-width="1"/>
      <rect id="Rectangle_292" data-name="Rectangle 292" width="3.404" height="3.404" transform="translate(4.246 62.328)" fill="#424242" stroke="#f2f2f2" stroke-width="1"/>
      <rect id="Rectangle_293" data-name="Rectangle 293" width="36.306" height="2.269" transform="translate(12.472 62.895)" fill="#424242" stroke="#f2f2f2" stroke-width="1"/>
      <rect id="Rectangle_294" data-name="Rectangle 294" width="3.404" height="3.404" transform="translate(4.246 69.588)" fill="#424242" stroke="#f2f2f2" stroke-width="1"/>
      <rect id="Rectangle_295" data-name="Rectangle 295" width="36.306" height="2.269" transform="translate(12.472 70.155)" fill="#424242" stroke="#f2f2f2" stroke-width="1"/>
      <rect id="Rectangle_296" data-name="Rectangle 296" width="22.124" height="1.702" transform="translate(129.429 28.03)" fill="#e9e9e9" stroke="#f2f2f2" stroke-width="1"/>
      <rect id="Rectangle_297" data-name="Rectangle 297" width="22.124" height="1.702" transform="translate(95.974 28.03)" fill="#e9e9e9" stroke="#f2f2f2" stroke-width="1"/>
      <rect id="Rectangle_298" data-name="Rectangle 298" width="22.124" height="1.702" transform="translate(62.519 28.03)" fill="#e9e9e9" stroke="#f2f2f2" stroke-width="1"/>
      <rect id="Rectangle_299" data-name="Rectangle 299" width="17.585" height="1.135" transform="translate(34.54 171.699)" fill="#fff" stroke="#f2f2f2" stroke-width="1"/>
      <rect id="Rectangle_300" data-name="Rectangle 300" width="17.585" height="1.135" transform="translate(7.003 171.699)" fill="#fff" stroke="#f2f2f2" stroke-width="1"/>
      <g id="Group_64" data-name="Group 64" transform="translate(51.672 28.407)">
        <line id="Line_83" data-name="Line 83" x2="4.166" transform="translate(0)" fill="none" stroke="#f2f2f2" stroke-width="0.455"/>
        <line id="Line_84" data-name="Line 84" x2="4.166" transform="translate(0 1.105)" fill="none" stroke="#f2f2f2" stroke-width="0.455"/>
        <line id="Line_85" data-name="Line 85" x2="4.166" transform="translate(0 2.21)" fill="none" stroke="#f2f2f2" stroke-width="0.455"/>
      </g>
    </g>
    <g id="alert" transform="translate(0 16.017)">
      <path id="Path_151" data-name="Path 151" d="M0-.128l271.651.059V8.24H0Z" transform="translate(0 0.128)" fill="#dc3545"/>
      <ellipse id="Ellipse_15" data-name="Ellipse 15" cx="1.385" cy="1.385" rx="1.385" ry="1.385" transform="translate(3.693 3.093)" fill="#fff"/>
      <rect id="Rectangle_302" data-name="Rectangle 302" width="73.394" height="0.923" transform="translate(10.155 4.017)" fill="#fff"/>
    </g>
  </g>
</svg>
