<svg xmlns="http://www.w3.org/2000/svg" width="166.284" height="218.082" viewBox="0 0 166.284 218.082">
  <g id="Group_225" data-name="Group 225" transform="translate(-687.457 -343)">
    <rect id="Rectangle_2334" data-name="Rectangle 2334" width="166" height="3.98" transform="translate(687.741 382.127)" fill="#fe7c3f"/>
    <rect id="Rectangle_2334-2" data-name="Rectangle 2334" width="55.284" height="3.98" transform="translate(687.457 382.127)" fill="#99d4c0"/>
    <rect id="Rectangle_345" data-name="Rectangle 345" width="121" height="121" transform="translate(687.741 386.107)" fill="#42ba85"/>
    <rect id="Rectangle_348" data-name="Rectangle 348" width="70" height="70" transform="translate(783.741 343)" fill="#f2f2f2"/>
    <g id="Group_184" data-name="Group 184" transform="translate(-31.259 -957.893)">
      <g id="Group_181" data-name="Group 181">
        <g id="Group_1" data-name="Group 1">
          <path id="Path_2-3" data-name="Path 2-3" d="M814.522,1409.405H787.094l-2.284,18.034a2.286,2.286,0,0,0,2.021,2.523,2.64,2.64,0,0,0,.265.014h27.426a2.283,2.283,0,0,0,2.3-2.265,2.4,2.4,0,0,0-.012-.317Z" fill="#fff"/>
          <rect id="Rectangle_7-3" data-name="Rectangle 7-3" width="41.143" height="4.571" transform="translate(780.259 1402.57)" fill="#fff"/>
          <path id="Path_3-3" data-name="Path 3-3" d="M807.029,1392.993a14.088,14.088,0,0,0,.664-4.571c-.024-3.52-1.03-6.446-2.31-6.446s-2.29,2.9-2.29,6.491a15.342,15.342,0,0,0,.274,2.994,10.04,10.04,0,0,0-5.12-.023,17.157,17.157,0,0,0,.274-2.949c.005-3.587-1-6.513-2.281-6.513s-2.286,2.926-2.286,6.514a14.8,14.8,0,0,0,.64,4.571,11.687,11.687,0,0,0-5.211,7.2h4.571a2.286,2.286,0,1,1,4.571-.1v.1h4.568a2.286,2.286,0,0,1,4.571,0h4.565A11.64,11.64,0,0,0,807.029,1392.993Z" fill="#fff"/>
        </g>
        <g id="Group_16" data-name="Group 16">
          <path id="Path_2-4" data-name="Path 2-4" d="M766.956,1414.547H746.385l-1.715,13.526a1.714,1.714,0,0,0,1.515,1.892h0a1.879,1.879,0,0,0,.2.01h20.57a1.711,1.711,0,0,0,1.728-1.694v-.006h0a1.72,1.72,0,0,0-.014-.238Z" fill="#fff"/>
          <rect id="Rectangle_7-4" data-name="Rectangle 7-4" width="30.857" height="3.429" transform="translate(741.259 1409.422)" fill="#fff"/>
          <path id="Path_3-4" data-name="Path 3-4" d="M761.329,1402.239a10.577,10.577,0,0,0,.5-3.429c-.024-2.64-.774-4.834-1.734-4.834s-1.714,2.177-1.714,4.869a11.512,11.512,0,0,0,.206,2.246,7.54,7.54,0,0,0-3.84-.017,12.907,12.907,0,0,0,.206-2.211c0-2.693-.755-4.887-1.715-4.887s-1.709,2.194-1.709,4.886a11.113,11.113,0,0,0,.481,3.428,8.766,8.766,0,0,0-3.909,5.4h3.428a1.715,1.715,0,0,1,3.429,0h3.429a1.715,1.715,0,0,1,3.429,0h3.429A8.728,8.728,0,0,0,761.329,1402.239Z" fill="#fff"/>
        </g>
      </g>
      <g id="Group_182" data-name="Group 182">
        <g id="Group_17" data-name="Group 17">
          <path id="Path_2" data-name="Path 2" d="M871.585,1337.362H857.871l-1.143,9.017a1.143,1.143,0,0,0,1.009,1.262,1.184,1.184,0,0,0,.133.007h13.715a1.141,1.141,0,0,0,1.152-1.13v0h0a1.068,1.068,0,0,0-.009-.159Z" fill="#141823"/>
          <rect id="Rectangle_7" data-name="Rectangle 7" width="20.571" height="2.286" transform="translate(854.454 1333.945)" fill="#141823"/>
          <path id="Path_3" data-name="Path 3" d="M867.837,1329.157a7,7,0,0,0,.331-2.286c-.011-1.76-.514-3.223-1.154-3.223s-1.143,1.451-1.143,3.246a7.707,7.707,0,0,0,.137,1.5,5.909,5.909,0,0,0-1.284-.175,5.806,5.806,0,0,0-1.28.16,8.571,8.571,0,0,0,.137-1.474c0-1.794-.5-3.257-1.138-3.257s-1.143,1.463-1.143,3.257a7.437,7.437,0,0,0,.324,2.286,5.849,5.849,0,0,0-2.606,3.6H861.3a1.143,1.143,0,1,1,2.286,0h2.286a1.143,1.143,0,1,1,2.286,0h2.286A5.817,5.817,0,0,0,867.837,1329.157Z" fill="#141823"/>
        </g>
        <g id="Group_18" data-name="Group 18">
          <path id="Path_2-2" data-name="Path 2-2" d="M843.3,1339.934H833.017l-.857,6.763a.859.859,0,0,0,.758.946h0c.034,0,.067.005.1.005H843.3a.855.855,0,0,0,.868-.842v0h0a.785.785,0,0,0-.007-.119Z" fill="#141823"/>
          <rect id="Rectangle_7-2" data-name="Rectangle 7-2" width="15.429" height="1.714" transform="translate(830.454 1337.371)" fill="#141823"/>
          <path id="Path_3-2" data-name="Path 3-2" d="M840.491,1333.783a5.272,5.272,0,0,0,.249-1.714c-.009-1.317-.386-2.417-.866-2.417s-.857,1.089-.857,2.434a5.787,5.787,0,0,0,.1,1.123,4.44,4.44,0,0,0-.96-.129,4.37,4.37,0,0,0-.96.12,6.4,6.4,0,0,0,.1-1.106c.006-1.342-.372-2.442-.852-2.442s-.861,1.1-.861,2.443a5.559,5.559,0,0,0,.24,1.714,4.389,4.389,0,0,0-1.954,2.7h1.714a.857.857,0,0,1,1.714,0h1.719a.857.857,0,0,1,1.714,0h1.714A4.36,4.36,0,0,0,840.491,1333.783Z" fill="#141823"/>
        </g>
      </g>
      <g id="_4_icon_sizes" data-name=" 4 icon sizes">
        <g id="_4_icon_sizes-2" data-name=" 4 icon sizes-2" style="isolation: isolate">
          <text id="_4_icon_sizes-2-2" data-name="4 icon sizes" transform="translate(736.259 1514.975)" fill="#141823" font-size="18" font-family="Lato-Bold, Lato" font-weight="700" style="isolation: isolate"><tspan x="0" y="0">4 icon sizes</tspan></text>
        </g>
      </g>
    </g>
  </g>
</svg>
